%YAML 1.1
%TAG !u! tag:unity3d.com,2011:
--- !u!29 &1
OcclusionCullingSettings:
  m_ObjectHideFlags: 0
  serializedVersion: 2
  m_OcclusionBakeSettings:
    smallestOccluder: 5
    smallestHole: 0.25
    backfaceThreshold: 100
  m_SceneGUID: 00000000000000000000000000000000
  m_OcclusionCullingData: {fileID: 0}
--- !u!104 &2
RenderSettings:
  m_ObjectHideFlags: 0
  serializedVersion: 9
  m_Fog: 0
  m_FogColor: {r: 0.5, g: 0.5, b: 0.5, a: 1}
  m_FogMode: 3
  m_FogDensity: 0.01
  m_LinearFogStart: 0
  m_LinearFogEnd: 300
  m_AmbientSkyColor: {r: 0.212, g: 0.227, b: 0.259, a: 1}
  m_AmbientEquatorColor: {r: 0.114, g: 0.125, b: 0.133, a: 1}
  m_AmbientGroundColor: {r: 0.047, g: 0.043, b: 0.035, a: 1}
  m_AmbientIntensity: 1
  m_AmbientMode: 0
  m_SubtractiveShadowColor: {r: 0.42, g: 0.478, b: 0.627, a: 1}
  m_SkyboxMaterial: {fileID: 10304, guid: 0000000000000000f000000000000000, type: 0}
  m_HaloStrength: 0.5
  m_FlareStrength: 1
  m_FlareFadeSpeed: 3
  m_HaloTexture: {fileID: 0}
  m_SpotCookie: {fileID: 10001, guid: 0000000000000000e000000000000000, type: 0}
  m_DefaultReflectionMode: 0
  m_DefaultReflectionResolution: 128
  m_ReflectionBounces: 1
  m_ReflectionIntensity: 1
  m_CustomReflection: {fileID: 0}
  m_Sun: {fileID: 0}
  m_IndirectSpecularColor: {r: 0.44657898, g: 0.49641287, b: 0.5748173, a: 1}
  m_UseRadianceAmbientProbe: 0
--- !u!157 &3
LightmapSettings:
  m_ObjectHideFlags: 0
  serializedVersion: 11
  m_GIWorkflowMode: 0
  m_GISettings:
    serializedVersion: 2
    m_BounceScale: 1
    m_IndirectOutputScale: 1
    m_AlbedoBoost: 1
    m_TemporalCoherenceThreshold: 1
    m_EnvironmentLightingMode: 0
    m_EnableBakedLightmaps: 1
    m_EnableRealtimeLightmaps: 1
  m_LightmapEditorSettings:
    serializedVersion: 10
    m_Resolution: 2
    m_BakeResolution: 40
    m_AtlasSize: 1024
    m_AO: 0
    m_AOMaxDistance: 1
    m_CompAOExponent: 1
    m_CompAOExponentDirect: 0
    m_Padding: 2
    m_LightmapParameters: {fileID: 0}
    m_LightmapsBakeMode: 1
    m_TextureCompression: 1
    m_FinalGather: 0
    m_FinalGatherFiltering: 1
    m_FinalGatherRayCount: 256
    m_ReflectionCompression: 2
    m_MixedBakeMode: 2
    m_BakeBackend: 1
    m_PVRSampling: 1
    m_PVRDirectSampleCount: 32
    m_PVRSampleCount: 500
    m_PVRBounces: 2
    m_PVRFilterTypeDirect: 0
    m_PVRFilterTypeIndirect: 0
    m_PVRFilterTypeAO: 0
    m_PVRFilteringMode: 1
    m_PVRCulling: 1
    m_PVRFilteringGaussRadiusDirect: 1
    m_PVRFilteringGaussRadiusIndirect: 5
    m_PVRFilteringGaussRadiusAO: 2
    m_PVRFilteringAtrousPositionSigmaDirect: 0.5
    m_PVRFilteringAtrousPositionSigmaIndirect: 2
    m_PVRFilteringAtrousPositionSigmaAO: 1
    m_ShowResolutionOverlay: 1
  m_LightingDataAsset: {fileID: 0}
  m_UseShadowmask: 1
--- !u!196 &4
NavMeshSettings:
  serializedVersion: 2
  m_ObjectHideFlags: 0
  m_BuildSettings:
    serializedVersion: 2
    agentTypeID: 0
    agentRadius: 0.5
    agentHeight: 2
    agentSlope: 45
    agentClimb: 0.4
    ledgeDropHeight: 0
    maxJumpAcrossDistance: 0
    minRegionArea: 2
    manualCellSize: 0
    cellSize: 0.16666667
    manualTileSize: 0
    tileSize: 256
    accuratePlacement: 0
    debug:
      m_Flags: 0
  m_NavMeshData: {fileID: 0}
--- !u!1 &133265421
GameObject:
  m_ObjectHideFlags: 0
  m_CorrespondingSourceObject: {fileID: 0}
  m_PrefabInternal: {fileID: 0}
  serializedVersion: 6
  m_Component:
  - component: {fileID: 133265424}
  - component: {fileID: 133265423}
  - component: {fileID: 133265422}
  m_Layer: 0
  m_Name: Main Camera
  m_TagString: MainCamera
  m_Icon: {fileID: 0}
  m_NavMeshLayer: 0
  m_StaticEditorFlags: 0
  m_IsActive: 1
--- !u!81 &133265422
AudioListener:
  m_ObjectHideFlags: 0
  m_CorrespondingSourceObject: {fileID: 0}
  m_PrefabInternal: {fileID: 0}
  m_GameObject: {fileID: 133265421}
  m_Enabled: 1
--- !u!20 &133265423
Camera:
  m_ObjectHideFlags: 0
  m_CorrespondingSourceObject: {fileID: 0}
  m_PrefabInternal: {fileID: 0}
  m_GameObject: {fileID: 133265421}
  m_Enabled: 1
  serializedVersion: 2
  m_ClearFlags: 1
  m_BackGroundColor: {r: 0.19215687, g: 0.3019608, b: 0.4745098, a: 0}
  m_projectionMatrixMode: 1
  m_SensorSize: {x: 36, y: 24}
  m_LensShift: {x: 0, y: 0}
  m_FocalLength: 50
  m_NormalizedViewPortRect:
    serializedVersion: 2
    x: 0
    y: 0
    width: 1
    height: 1
  near clip plane: 0.3
  far clip plane: 1000
  field of view: 60
  orthographic: 0
  orthographic size: 5
  m_Depth: -1
  m_CullingMask:
    serializedVersion: 2
    m_Bits: 4294967295
  m_RenderingPath: -1
  m_TargetTexture: {fileID: 0}
  m_TargetDisplay: 0
  m_TargetEye: 3
  m_HDR: 1
  m_AllowMSAA: 1
  m_AllowDynamicResolution: 0
  m_ForceIntoRT: 0
  m_OcclusionCulling: 1
  m_StereoConvergence: 10
  m_StereoSeparation: 0.022
--- !u!4 &133265424
Transform:
  m_ObjectHideFlags: 0
  m_CorrespondingSourceObject: {fileID: 0}
  m_PrefabInternal: {fileID: 0}
  m_GameObject: {fileID: 133265421}
  m_LocalRotation: {x: 0, y: 0, z: 0, w: 1}
  m_LocalPosition: {x: 0, y: 1, z: -10}
  m_LocalScale: {x: 1, y: 1, z: 1}
  m_Children: []
  m_Father: {fileID: 0}
  m_RootOrder: 0
  m_LocalEulerAnglesHint: {x: 0, y: 0, z: 0}
--- !u!1001 &208037471
Prefab:
  m_ObjectHideFlags: 0
  serializedVersion: 2
  m_Modification:
    m_TransformParent: {fileID: 1156789953}
    m_Modifications:
    - target: {fileID: 224657068988582684, guid: 8a0cc3fa8bfb645a7b371a78839118d2,
        type: 2}
      propertyPath: m_LocalPosition.x
      value: 0
      objectReference: {fileID: 0}
    - target: {fileID: 224657068988582684, guid: 8a0cc3fa8bfb645a7b371a78839118d2,
        type: 2}
      propertyPath: m_LocalPosition.y
      value: 0
      objectReference: {fileID: 0}
    - target: {fileID: 224657068988582684, guid: 8a0cc3fa8bfb645a7b371a78839118d2,
        type: 2}
      propertyPath: m_LocalPosition.z
      value: 0
      objectReference: {fileID: 0}
    - target: {fileID: 224657068988582684, guid: 8a0cc3fa8bfb645a7b371a78839118d2,
        type: 2}
      propertyPath: m_LocalRotation.x
      value: -0
      objectReference: {fileID: 0}
    - target: {fileID: 224657068988582684, guid: 8a0cc3fa8bfb645a7b371a78839118d2,
        type: 2}
      propertyPath: m_LocalRotation.y
      value: -0
      objectReference: {fileID: 0}
    - target: {fileID: 224657068988582684, guid: 8a0cc3fa8bfb645a7b371a78839118d2,
        type: 2}
      propertyPath: m_LocalRotation.z
      value: -0
      objectReference: {fileID: 0}
    - target: {fileID: 224657068988582684, guid: 8a0cc3fa8bfb645a7b371a78839118d2,
        type: 2}
      propertyPath: m_LocalRotation.w
      value: 1
      objectReference: {fileID: 0}
    - target: {fileID: 224657068988582684, guid: 8a0cc3fa8bfb645a7b371a78839118d2,
        type: 2}
      propertyPath: m_RootOrder
      value: 2
      objectReference: {fileID: 0}
    - target: {fileID: 224657068988582684, guid: 8a0cc3fa8bfb645a7b371a78839118d2,
        type: 2}
      propertyPath: m_AnchoredPosition.x
      value: 0
      objectReference: {fileID: 0}
    - target: {fileID: 224657068988582684, guid: 8a0cc3fa8bfb645a7b371a78839118d2,
        type: 2}
      propertyPath: m_AnchoredPosition.y
      value: 10.899963
      objectReference: {fileID: 0}
    - target: {fileID: 224657068988582684, guid: 8a0cc3fa8bfb645a7b371a78839118d2,
        type: 2}
      propertyPath: m_SizeDelta.x
      value: 615
      objectReference: {fileID: 0}
    - target: {fileID: 224657068988582684, guid: 8a0cc3fa8bfb645a7b371a78839118d2,
        type: 2}
      propertyPath: m_SizeDelta.y
      value: 557.1
      objectReference: {fileID: 0}
    - target: {fileID: 224657068988582684, guid: 8a0cc3fa8bfb645a7b371a78839118d2,
        type: 2}
      propertyPath: m_AnchorMin.x
      value: 0.5
      objectReference: {fileID: 0}
    - target: {fileID: 224657068988582684, guid: 8a0cc3fa8bfb645a7b371a78839118d2,
        type: 2}
      propertyPath: m_AnchorMin.y
      value: 0.5
      objectReference: {fileID: 0}
    - target: {fileID: 224657068988582684, guid: 8a0cc3fa8bfb645a7b371a78839118d2,
        type: 2}
      propertyPath: m_AnchorMax.x
      value: 0.5
      objectReference: {fileID: 0}
    - target: {fileID: 224657068988582684, guid: 8a0cc3fa8bfb645a7b371a78839118d2,
        type: 2}
      propertyPath: m_AnchorMax.y
      value: 0.5
      objectReference: {fileID: 0}
    - target: {fileID: 224657068988582684, guid: 8a0cc3fa8bfb645a7b371a78839118d2,
        type: 2}
      propertyPath: m_Pivot.x
      value: 0.5
      objectReference: {fileID: 0}
    - target: {fileID: 224657068988582684, guid: 8a0cc3fa8bfb645a7b371a78839118d2,
        type: 2}
      propertyPath: m_Pivot.y
      value: 0.5
      objectReference: {fileID: 0}
    - target: {fileID: 114724249131661790, guid: 8a0cc3fa8bfb645a7b371a78839118d2,
        type: 2}
      propertyPath: AllowLoop
      value: 0
      objectReference: {fileID: 0}
    - target: {fileID: 1095384063778572, guid: 8a0cc3fa8bfb645a7b371a78839118d2, type: 2}
      propertyPath: m_IsActive
      value: 0
      objectReference: {fileID: 0}
    m_RemovedComponents: []
  m_SourcePrefab: {fileID: 100100000, guid: 8a0cc3fa8bfb645a7b371a78839118d2, type: 2}
  m_IsPrefabAsset: 0
--- !u!224 &363950736 stripped
RectTransform:
  m_CorrespondingSourceObject: {fileID: 224606185273270118, guid: 81154eeaea03d400ab2442f81b2e6b20,
    type: 2}
  m_PrefabInternal: {fileID: 1649294231}
--- !u!224 &494693578 stripped
RectTransform:
  m_CorrespondingSourceObject: {fileID: 224251313808863552, guid: f9c8e52f4cb684f8f9c4184b6e8c0fe7,
    type: 2}
  m_PrefabInternal: {fileID: 1099813249}
--- !u!1 &640684571
GameObject:
  m_ObjectHideFlags: 0
  m_CorrespondingSourceObject: {fileID: 0}
  m_PrefabInternal: {fileID: 0}
  serializedVersion: 6
  m_Component:
  - component: {fileID: 640684573}
  - component: {fileID: 640684572}
  m_Layer: 0
  m_Name: Directional Light
  m_TagString: Untagged
  m_Icon: {fileID: 0}
  m_NavMeshLayer: 0
  m_StaticEditorFlags: 0
  m_IsActive: 1
--- !u!108 &640684572
Light:
  m_ObjectHideFlags: 0
  m_CorrespondingSourceObject: {fileID: 0}
  m_PrefabInternal: {fileID: 0}
  m_GameObject: {fileID: 640684571}
  m_Enabled: 1
  serializedVersion: 8
  m_Type: 1
  m_Color: {r: 1, g: 0.95686275, b: 0.8392157, a: 1}
  m_Intensity: 1
  m_Range: 10
  m_SpotAngle: 30
  m_CookieSize: 10
  m_Shadows:
    m_Type: 2
    m_Resolution: -1
    m_CustomResolution: -1
    m_Strength: 1
    m_Bias: 0.05
    m_NormalBias: 0.4
    m_NearPlane: 0.2
  m_Cookie: {fileID: 0}
  m_DrawHalo: 0
  m_Flare: {fileID: 0}
  m_RenderMode: 0
  m_CullingMask:
    serializedVersion: 2
    m_Bits: 4294967295
  m_Lightmapping: 4
  m_LightShadowCasterMode: 0
  m_AreaSize: {x: 1, y: 1}
  m_BounceIntensity: 1
  m_ColorTemperature: 6570
  m_UseColorTemperature: 0
  m_ShadowRadius: 0
  m_ShadowAngle: 0
--- !u!4 &640684573
Transform:
  m_ObjectHideFlags: 0
  m_CorrespondingSourceObject: {fileID: 0}
  m_PrefabInternal: {fileID: 0}
  m_GameObject: {fileID: 640684571}
  m_LocalRotation: {x: 0.40821788, y: -0.23456968, z: 0.10938163, w: 0.8754261}
  m_LocalPosition: {x: 0, y: 3, z: 0}
  m_LocalScale: {x: 1, y: 1, z: 1}
  m_Children: []
  m_Father: {fileID: 0}
  m_RootOrder: 1
  m_LocalEulerAnglesHint: {x: 50, y: -30, z: 0}
--- !u!224 &658924942 stripped
RectTransform:
  m_CorrespondingSourceObject: {fileID: 224976032389729038, guid: 0efa11f34da43451c85b758be57feafb,
    type: 2}
  m_PrefabInternal: {fileID: 1227100919}
--- !u!224 &801614172 stripped
RectTransform:
  m_CorrespondingSourceObject: {fileID: 224644563446651122, guid: 3d90dc300b14a418ea04fbd8e216d423,
    type: 2}
  m_PrefabInternal: {fileID: 823714494}
--- !u!1001 &823714494
Prefab:
  m_ObjectHideFlags: 0
  serializedVersion: 2
  m_Modification:
    m_TransformParent: {fileID: 1156789953}
    m_Modifications:
    - target: {fileID: 224644563446651122, guid: 3d90dc300b14a418ea04fbd8e216d423,
        type: 2}
      propertyPath: m_LocalPosition.x
      value: 0
      objectReference: {fileID: 0}
    - target: {fileID: 224644563446651122, guid: 3d90dc300b14a418ea04fbd8e216d423,
        type: 2}
      propertyPath: m_LocalPosition.y
      value: 0
      objectReference: {fileID: 0}
    - target: {fileID: 224644563446651122, guid: 3d90dc300b14a418ea04fbd8e216d423,
        type: 2}
      propertyPath: m_LocalPosition.z
      value: 0
      objectReference: {fileID: 0}
    - target: {fileID: 224644563446651122, guid: 3d90dc300b14a418ea04fbd8e216d423,
        type: 2}
      propertyPath: m_LocalRotation.x
      value: -0
      objectReference: {fileID: 0}
    - target: {fileID: 224644563446651122, guid: 3d90dc300b14a418ea04fbd8e216d423,
        type: 2}
      propertyPath: m_LocalRotation.y
      value: -0
      objectReference: {fileID: 0}
    - target: {fileID: 224644563446651122, guid: 3d90dc300b14a418ea04fbd8e216d423,
        type: 2}
      propertyPath: m_LocalRotation.z
      value: -0
      objectReference: {fileID: 0}
    - target: {fileID: 224644563446651122, guid: 3d90dc300b14a418ea04fbd8e216d423,
        type: 2}
      propertyPath: m_LocalRotation.w
      value: 1
      objectReference: {fileID: 0}
    - target: {fileID: 224644563446651122, guid: 3d90dc300b14a418ea04fbd8e216d423,
        type: 2}
      propertyPath: m_RootOrder
      value: 1
      objectReference: {fileID: 0}
    - target: {fileID: 224644563446651122, guid: 3d90dc300b14a418ea04fbd8e216d423,
        type: 2}
      propertyPath: m_AnchoredPosition.x
      value: 0
      objectReference: {fileID: 0}
    - target: {fileID: 224644563446651122, guid: 3d90dc300b14a418ea04fbd8e216d423,
        type: 2}
      propertyPath: m_AnchoredPosition.y
      value: 10.899963
      objectReference: {fileID: 0}
    - target: {fileID: 224644563446651122, guid: 3d90dc300b14a418ea04fbd8e216d423,
        type: 2}
      propertyPath: m_SizeDelta.x
      value: 615
      objectReference: {fileID: 0}
    - target: {fileID: 224644563446651122, guid: 3d90dc300b14a418ea04fbd8e216d423,
        type: 2}
      propertyPath: m_SizeDelta.y
      value: 557.1
      objectReference: {fileID: 0}
    - target: {fileID: 224644563446651122, guid: 3d90dc300b14a418ea04fbd8e216d423,
        type: 2}
      propertyPath: m_AnchorMin.x
      value: 0.5
      objectReference: {fileID: 0}
    - target: {fileID: 224644563446651122, guid: 3d90dc300b14a418ea04fbd8e216d423,
        type: 2}
      propertyPath: m_AnchorMin.y
      value: 0.5
      objectReference: {fileID: 0}
    - target: {fileID: 224644563446651122, guid: 3d90dc300b14a418ea04fbd8e216d423,
        type: 2}
      propertyPath: m_AnchorMax.x
      value: 0.5
      objectReference: {fileID: 0}
    - target: {fileID: 224644563446651122, guid: 3d90dc300b14a418ea04fbd8e216d423,
        type: 2}
      propertyPath: m_AnchorMax.y
      value: 0.5
      objectReference: {fileID: 0}
    - target: {fileID: 224644563446651122, guid: 3d90dc300b14a418ea04fbd8e216d423,
        type: 2}
      propertyPath: m_Pivot.x
      value: 0.5
      objectReference: {fileID: 0}
    - target: {fileID: 224644563446651122, guid: 3d90dc300b14a418ea04fbd8e216d423,
        type: 2}
      propertyPath: m_Pivot.y
      value: 0.5
      objectReference: {fileID: 0}
    - target: {fileID: 1910431982318206, guid: 3d90dc300b14a418ea04fbd8e216d423, type: 2}
      propertyPath: m_IsActive
      value: 0
      objectReference: {fileID: 0}
    - target: {fileID: 114405330366220024, guid: 3d90dc300b14a418ea04fbd8e216d423,
        type: 2}
      propertyPath: AllowLoop
      value: 0
      objectReference: {fileID: 0}
    m_RemovedComponents: []
  m_SourcePrefab: {fileID: 100100000, guid: 3d90dc300b14a418ea04fbd8e216d423, type: 2}
  m_IsPrefabAsset: 0
--- !u!1001 &1099813249
Prefab:
  m_ObjectHideFlags: 0
  serializedVersion: 2
  m_Modification:
    m_TransformParent: {fileID: 1156789953}
    m_Modifications:
    - target: {fileID: 224251313808863552, guid: f9c8e52f4cb684f8f9c4184b6e8c0fe7,
        type: 2}
      propertyPath: m_LocalPosition.x
      value: 0
      objectReference: {fileID: 0}
    - target: {fileID: 224251313808863552, guid: f9c8e52f4cb684f8f9c4184b6e8c0fe7,
        type: 2}
      propertyPath: m_LocalPosition.y
      value: 0
      objectReference: {fileID: 0}
    - target: {fileID: 224251313808863552, guid: f9c8e52f4cb684f8f9c4184b6e8c0fe7,
        type: 2}
      propertyPath: m_LocalPosition.z
      value: 0
      objectReference: {fileID: 0}
    - target: {fileID: 224251313808863552, guid: f9c8e52f4cb684f8f9c4184b6e8c0fe7,
        type: 2}
      propertyPath: m_LocalRotation.x
      value: -0
      objectReference: {fileID: 0}
    - target: {fileID: 224251313808863552, guid: f9c8e52f4cb684f8f9c4184b6e8c0fe7,
        type: 2}
      propertyPath: m_LocalRotation.y
      value: -0
      objectReference: {fileID: 0}
    - target: {fileID: 224251313808863552, guid: f9c8e52f4cb684f8f9c4184b6e8c0fe7,
        type: 2}
      propertyPath: m_LocalRotation.z
      value: -0
      objectReference: {fileID: 0}
    - target: {fileID: 224251313808863552, guid: f9c8e52f4cb684f8f9c4184b6e8c0fe7,
        type: 2}
      propertyPath: m_LocalRotation.w
      value: 1
      objectReference: {fileID: 0}
    - target: {fileID: 224251313808863552, guid: f9c8e52f4cb684f8f9c4184b6e8c0fe7,
        type: 2}
      propertyPath: m_RootOrder
      value: 4
      objectReference: {fileID: 0}
    - target: {fileID: 224251313808863552, guid: f9c8e52f4cb684f8f9c4184b6e8c0fe7,
        type: 2}
      propertyPath: m_AnchoredPosition.x
      value: 108.6
      objectReference: {fileID: 0}
    - target: {fileID: 224251313808863552, guid: f9c8e52f4cb684f8f9c4184b6e8c0fe7,
        type: 2}
      propertyPath: m_AnchoredPosition.y
      value: 0.00000017881393
      objectReference: {fileID: 0}
    - target: {fileID: 224251313808863552, guid: f9c8e52f4cb684f8f9c4184b6e8c0fe7,
        type: 2}
      propertyPath: m_SizeDelta.x
      value: 100
      objectReference: {fileID: 0}
    - target: {fileID: 224251313808863552, guid: f9c8e52f4cb684f8f9c4184b6e8c0fe7,
        type: 2}
      propertyPath: m_SizeDelta.y
      value: 100
      objectReference: {fileID: 0}
    - target: {fileID: 224251313808863552, guid: f9c8e52f4cb684f8f9c4184b6e8c0fe7,
        type: 2}
      propertyPath: m_AnchorMin.x
      value: 0.5
      objectReference: {fileID: 0}
    - target: {fileID: 224251313808863552, guid: f9c8e52f4cb684f8f9c4184b6e8c0fe7,
        type: 2}
      propertyPath: m_AnchorMin.y
      value: 0.5
      objectReference: {fileID: 0}
    - target: {fileID: 224251313808863552, guid: f9c8e52f4cb684f8f9c4184b6e8c0fe7,
        type: 2}
      propertyPath: m_AnchorMax.x
      value: 0.5
      objectReference: {fileID: 0}
    - target: {fileID: 224251313808863552, guid: f9c8e52f4cb684f8f9c4184b6e8c0fe7,
        type: 2}
      propertyPath: m_AnchorMax.y
      value: 0.5
      objectReference: {fileID: 0}
    - target: {fileID: 224251313808863552, guid: f9c8e52f4cb684f8f9c4184b6e8c0fe7,
        type: 2}
      propertyPath: m_Pivot.x
      value: 0.5
      objectReference: {fileID: 0}
    - target: {fileID: 224251313808863552, guid: f9c8e52f4cb684f8f9c4184b6e8c0fe7,
        type: 2}
      propertyPath: m_Pivot.y
      value: 0.5
      objectReference: {fileID: 0}
    - target: {fileID: 1254367628123222, guid: f9c8e52f4cb684f8f9c4184b6e8c0fe7, type: 2}
      propertyPath: m_IsActive
      value: 0
      objectReference: {fileID: 0}
    m_RemovedComponents: []
  m_SourcePrefab: {fileID: 100100000, guid: f9c8e52f4cb684f8f9c4184b6e8c0fe7, type: 2}
  m_IsPrefabAsset: 0
--- !u!1 &1156789949
GameObject:
  m_ObjectHideFlags: 0
  m_CorrespondingSourceObject: {fileID: 0}
  m_PrefabInternal: {fileID: 0}
  serializedVersion: 6
  m_Component:
  - component: {fileID: 1156789953}
  - component: {fileID: 1156789952}
  - component: {fileID: 1156789951}
  - component: {fileID: 1156789950}
  m_Layer: 0
  m_Name: Canvas
  m_TagString: Untagged
  m_Icon: {fileID: 0}
  m_NavMeshLayer: 0
  m_StaticEditorFlags: 0
  m_IsActive: 1
--- !u!114 &1156789950
MonoBehaviour:
  m_ObjectHideFlags: 0
  m_CorrespondingSourceObject: {fileID: 0}
  m_PrefabInternal: {fileID: 0}
  m_GameObject: {fileID: 1156789949}
  m_Enabled: 1
  m_EditorHideFlags: 0
  m_Script: {fileID: 1301386320, guid: f70555f144d8491a825f0804e09c671c, type: 3}
  m_Name: 
  m_EditorClassIdentifier: 
  m_IgnoreReversedGraphics: 1
  m_BlockingObjects: 0
  m_BlockingMask:
    serializedVersion: 2
    m_Bits: 4294967295
--- !u!114 &1156789951
MonoBehaviour:
  m_ObjectHideFlags: 0
  m_CorrespondingSourceObject: {fileID: 0}
  m_PrefabInternal: {fileID: 0}
  m_GameObject: {fileID: 1156789949}
  m_Enabled: 1
  m_EditorHideFlags: 0
  m_Script: {fileID: 1980459831, guid: f70555f144d8491a825f0804e09c671c, type: 3}
  m_Name: 
  m_EditorClassIdentifier: 
  m_UiScaleMode: 0
  m_ReferencePixelsPerUnit: 100
  m_ScaleFactor: 1
  m_ReferenceResolution: {x: 800, y: 600}
  m_ScreenMatchMode: 0
  m_MatchWidthOrHeight: 0
  m_PhysicalUnit: 3
  m_FallbackScreenDPI: 96
  m_DefaultSpriteDPI: 96
  m_DynamicPixelsPerUnit: 1
--- !u!223 &1156789952
Canvas:
  m_ObjectHideFlags: 0
  m_CorrespondingSourceObject: {fileID: 0}
  m_PrefabInternal: {fileID: 0}
  m_GameObject: {fileID: 1156789949}
  m_Enabled: 1
  serializedVersion: 3
  m_RenderMode: 1
  m_Camera: {fileID: 133265423}
  m_PlaneDistance: 100
  m_PixelPerfect: 0
  m_ReceivesEvents: 1
  m_OverrideSorting: 0
  m_OverridePixelPerfect: 0
  m_SortingBucketNormalizedSize: 0
  m_AdditionalShaderChannelsFlag: 0
  m_SortingLayerID: 0
  m_SortingOrder: 0
  m_TargetDisplay: 0
--- !u!224 &1156789953
RectTransform:
  m_ObjectHideFlags: 0
  m_CorrespondingSourceObject: {fileID: 0}
  m_PrefabInternal: {fileID: 0}
  m_GameObject: {fileID: 1156789949}
  m_LocalRotation: {x: 0, y: 0, z: 0, w: 1}
  m_LocalPosition: {x: 0, y: 0, z: 0}
  m_LocalScale: {x: 0, y: 0, z: 0}
  m_Children:
  - {fileID: 658924942}
  - {fileID: 801614172}
  - {fileID: 1842579552}
  - {fileID: 363950736}
  - {fileID: 494693578}
  m_Father: {fileID: 0}
  m_RootOrder: 4
  m_LocalEulerAnglesHint: {x: 0, y: 0, z: 0}
  m_AnchorMin: {x: 0, y: 0}
  m_AnchorMax: {x: 0, y: 0}
  m_AnchoredPosition: {x: 0, y: 0}
  m_SizeDelta: {x: 0, y: 0}
  m_Pivot: {x: 0, y: 0}
--- !u!1001 &1227100919
Prefab:
  m_ObjectHideFlags: 0
  serializedVersion: 2
  m_Modification:
    m_TransformParent: {fileID: 1156789953}
    m_Modifications:
    - target: {fileID: 224976032389729038, guid: 0efa11f34da43451c85b758be57feafb,
        type: 2}
      propertyPath: m_LocalPosition.x
      value: 0
      objectReference: {fileID: 0}
    - target: {fileID: 224976032389729038, guid: 0efa11f34da43451c85b758be57feafb,
        type: 2}
      propertyPath: m_LocalPosition.y
      value: 0
      objectReference: {fileID: 0}
    - target: {fileID: 224976032389729038, guid: 0efa11f34da43451c85b758be57feafb,
        type: 2}
      propertyPath: m_LocalPosition.z
      value: 0
      objectReference: {fileID: 0}
    - target: {fileID: 224976032389729038, guid: 0efa11f34da43451c85b758be57feafb,
        type: 2}
      propertyPath: m_LocalRotation.x
      value: -0
      objectReference: {fileID: 0}
    - target: {fileID: 224976032389729038, guid: 0efa11f34da43451c85b758be57feafb,
        type: 2}
      propertyPath: m_LocalRotation.y
      value: -0
      objectReference: {fileID: 0}
    - target: {fileID: 224976032389729038, guid: 0efa11f34da43451c85b758be57feafb,
        type: 2}
      propertyPath: m_LocalRotation.z
      value: -0
      objectReference: {fileID: 0}
    - target: {fileID: 224976032389729038, guid: 0efa11f34da43451c85b758be57feafb,
        type: 2}
      propertyPath: m_LocalRotation.w
      value: 1
      objectReference: {fileID: 0}
    - target: {fileID: 224976032389729038, guid: 0efa11f34da43451c85b758be57feafb,
        type: 2}
      propertyPath: m_RootOrder
      value: 0
      objectReference: {fileID: 0}
    - target: {fileID: 224976032389729038, guid: 0efa11f34da43451c85b758be57feafb,
        type: 2}
      propertyPath: m_AnchoredPosition.x
      value: 25
      objectReference: {fileID: 0}
    - target: {fileID: 224976032389729038, guid: 0efa11f34da43451c85b758be57feafb,
        type: 2}
      propertyPath: m_AnchoredPosition.y
      value: 10.9
      objectReference: {fileID: 0}
    - target: {fileID: 224976032389729038, guid: 0efa11f34da43451c85b758be57feafb,
        type: 2}
      propertyPath: m_SizeDelta.x
      value: 615
      objectReference: {fileID: 0}
    - target: {fileID: 224976032389729038, guid: 0efa11f34da43451c85b758be57feafb,
        type: 2}
      propertyPath: m_SizeDelta.y
      value: 557.1
      objectReference: {fileID: 0}
    - target: {fileID: 224976032389729038, guid: 0efa11f34da43451c85b758be57feafb,
        type: 2}
      propertyPath: m_AnchorMin.x
      value: 0.5
      objectReference: {fileID: 0}
    - target: {fileID: 224976032389729038, guid: 0efa11f34da43451c85b758be57feafb,
        type: 2}
      propertyPath: m_AnchorMin.y
      value: 0.5
      objectReference: {fileID: 0}
    - target: {fileID: 224976032389729038, guid: 0efa11f34da43451c85b758be57feafb,
        type: 2}
      propertyPath: m_AnchorMax.x
      value: 0.5
      objectReference: {fileID: 0}
    - target: {fileID: 224976032389729038, guid: 0efa11f34da43451c85b758be57feafb,
        type: 2}
      propertyPath: m_AnchorMax.y
      value: 0.5
      objectReference: {fileID: 0}
    - target: {fileID: 224976032389729038, guid: 0efa11f34da43451c85b758be57feafb,
        type: 2}
      propertyPath: m_Pivot.x
      value: 0.5
      objectReference: {fileID: 0}
    - target: {fileID: 224976032389729038, guid: 0efa11f34da43451c85b758be57feafb,
        type: 2}
      propertyPath: m_Pivot.y
      value: 0.5
      objectReference: {fileID: 0}
    - target: {fileID: 1364328663993698, guid: 0efa11f34da43451c85b758be57feafb, type: 2}
      propertyPath: m_IsActive
      value: 1
      objectReference: {fileID: 0}
    m_RemovedComponents: []
  m_SourcePrefab: {fileID: 100100000, guid: 0efa11f34da43451c85b758be57feafb, type: 2}
  m_IsPrefabAsset: 0
--- !u!1001 &1649294231
Prefab:
  m_ObjectHideFlags: 0
  serializedVersion: 2
  m_Modification:
    m_TransformParent: {fileID: 1156789953}
    m_Modifications:
    - target: {fileID: 224606185273270118, guid: 81154eeaea03d400ab2442f81b2e6b20,
        type: 2}
      propertyPath: m_LocalPosition.x
      value: 0
      objectReference: {fileID: 0}
    - target: {fileID: 224606185273270118, guid: 81154eeaea03d400ab2442f81b2e6b20,
        type: 2}
      propertyPath: m_LocalPosition.y
      value: 0
      objectReference: {fileID: 0}
    - target: {fileID: 224606185273270118, guid: 81154eeaea03d400ab2442f81b2e6b20,
        type: 2}
      propertyPath: m_LocalPosition.z
      value: 0
      objectReference: {fileID: 0}
    - target: {fileID: 224606185273270118, guid: 81154eeaea03d400ab2442f81b2e6b20,
        type: 2}
      propertyPath: m_LocalRotation.x
      value: -0
      objectReference: {fileID: 0}
    - target: {fileID: 224606185273270118, guid: 81154eeaea03d400ab2442f81b2e6b20,
        type: 2}
      propertyPath: m_LocalRotation.y
      value: -0
      objectReference: {fileID: 0}
    - target: {fileID: 224606185273270118, guid: 81154eeaea03d400ab2442f81b2e6b20,
        type: 2}
      propertyPath: m_LocalRotation.z
      value: -0
      objectReference: {fileID: 0}
    - target: {fileID: 224606185273270118, guid: 81154eeaea03d400ab2442f81b2e6b20,
        type: 2}
      propertyPath: m_LocalRotation.w
      value: 1
      objectReference: {fileID: 0}
    - target: {fileID: 224606185273270118, guid: 81154eeaea03d400ab2442f81b2e6b20,
        type: 2}
      propertyPath: m_RootOrder
      value: 3
      objectReference: {fileID: 0}
    - target: {fileID: 224606185273270118, guid: 81154eeaea03d400ab2442f81b2e6b20,
        type: 2}
      propertyPath: m_AnchoredPosition.x
      value: 108.6
      objectReference: {fileID: 0}
    - target: {fileID: 224606185273270118, guid: 81154eeaea03d400ab2442f81b2e6b20,
        type: 2}
      propertyPath: m_AnchoredPosition.y
      value: 0
      objectReference: {fileID: 0}
    - target: {fileID: 224606185273270118, guid: 81154eeaea03d400ab2442f81b2e6b20,
        type: 2}
      propertyPath: m_SizeDelta.x
      value: 100
      objectReference: {fileID: 0}
    - target: {fileID: 224606185273270118, guid: 81154eeaea03d400ab2442f81b2e6b20,
        type: 2}
      propertyPath: m_SizeDelta.y
      value: 100
      objectReference: {fileID: 0}
    - target: {fileID: 224606185273270118, guid: 81154eeaea03d400ab2442f81b2e6b20,
        type: 2}
      propertyPath: m_AnchorMin.x
      value: 0.5
      objectReference: {fileID: 0}
    - target: {fileID: 224606185273270118, guid: 81154eeaea03d400ab2442f81b2e6b20,
        type: 2}
      propertyPath: m_AnchorMin.y
      value: 0.5
      objectReference: {fileID: 0}
    - target: {fileID: 224606185273270118, guid: 81154eeaea03d400ab2442f81b2e6b20,
        type: 2}
      propertyPath: m_AnchorMax.x
      value: 0.5
      objectReference: {fileID: 0}
    - target: {fileID: 224606185273270118, guid: 81154eeaea03d400ab2442f81b2e6b20,
        type: 2}
      propertyPath: m_AnchorMax.y
      value: 0.5
      objectReference: {fileID: 0}
    - target: {fileID: 224606185273270118, guid: 81154eeaea03d400ab2442f81b2e6b20,
        type: 2}
      propertyPath: m_Pivot.x
      value: 0.5
      objectReference: {fileID: 0}
    - target: {fileID: 224606185273270118, guid: 81154eeaea03d400ab2442f81b2e6b20,
        type: 2}
      propertyPath: m_Pivot.y
      value: 0.5
      objectReference: {fileID: 0}
    - target: {fileID: 1705500868607008, guid: 81154eeaea03d400ab2442f81b2e6b20, type: 2}
      propertyPath: m_Name
      value: FotoStart
      objectReference: {fileID: 0}
    - target: {fileID: 114098881524880872, guid: 81154eeaea03d400ab2442f81b2e6b20,
        type: 2}
      propertyPath: AllowLoop
      value: 0
      objectReference: {fileID: 0}
    - target: {fileID: 114098881524880872, guid: 81154eeaea03d400ab2442f81b2e6b20,
        type: 2}
      propertyPath: TranslationScaler
      value: 0
      objectReference: {fileID: 0}
    - target: {fileID: 114098881524880872, guid: 81154eeaea03d400ab2442f81b2e6b20,
        type: 2}
      propertyPath: AnimationDuration
      value: 0.5
      objectReference: {fileID: 0}
    - target: {fileID: 114098881524880872, guid: 81154eeaea03d400ab2442f81b2e6b20,
        type: 2}
      propertyPath: Visibility.m_Curve.Array.data[0].inSlope
      value: 0
      objectReference: {fileID: 0}
    - target: {fileID: 114098881524880872, guid: 81154eeaea03d400ab2442f81b2e6b20,
        type: 2}
      propertyPath: Visibility.m_Curve.Array.data[0].outSlope
      value: 0
      objectReference: {fileID: 0}
    - target: {fileID: 114098881524880872, guid: 81154eeaea03d400ab2442f81b2e6b20,
        type: 2}
      propertyPath: Visibility.m_Curve.Array.data[0].outWeight
      value: 0.33333334
      objectReference: {fileID: 0}
    - target: {fileID: 114098881524880872, guid: 81154eeaea03d400ab2442f81b2e6b20,
        type: 2}
      propertyPath: Visibility.m_Curve.Array.data[1].value
      value: 0
      objectReference: {fileID: 0}
    - target: {fileID: 114098881524880872, guid: 81154eeaea03d400ab2442f81b2e6b20,
        type: 2}
      propertyPath: Visibility.m_Curve.Array.data[1].inSlope
      value: 0
      objectReference: {fileID: 0}
    - target: {fileID: 114098881524880872, guid: 81154eeaea03d400ab2442f81b2e6b20,
        type: 2}
      propertyPath: Visibility.m_Curve.Array.data[1].outSlope
      value: 0
      objectReference: {fileID: 0}
    - target: {fileID: 114098881524880872, guid: 81154eeaea03d400ab2442f81b2e6b20,
        type: 2}
      propertyPath: Visibility.m_Curve.Array.data[1].inWeight
      value: 0.33333334
      objectReference: {fileID: 0}
    - target: {fileID: 114098881524880872, guid: 81154eeaea03d400ab2442f81b2e6b20,
        type: 2}
      propertyPath: Visibility.m_PostInfinity
      value: 1
      objectReference: {fileID: 0}
    - target: {fileID: 114098881524880872, guid: 81154eeaea03d400ab2442f81b2e6b20,
        type: 2}
      propertyPath: Visibility.m_Curve.Array.data[0].value
      value: 1
      objectReference: {fileID: 0}
    - target: {fileID: 1705500868607008, guid: 81154eeaea03d400ab2442f81b2e6b20, type: 2}
      propertyPath: m_IsActive
      value: 0
      objectReference: {fileID: 0}
    m_RemovedComponents: []
  m_SourcePrefab: {fileID: 100100000, guid: 81154eeaea03d400ab2442f81b2e6b20, type: 2}
  m_IsPrefabAsset: 0
--- !u!1 &1752257466
GameObject:
  m_ObjectHideFlags: 0
  m_CorrespondingSourceObject: {fileID: 0}
  m_PrefabInternal: {fileID: 0}
  serializedVersion: 6
  m_Component:
  - component: {fileID: 1752257469}
  - component: {fileID: 1752257468}
  - component: {fileID: 1752257467}
  m_Layer: 0
  m_Name: EventSystem
  m_TagString: Untagged
  m_Icon: {fileID: 0}
  m_NavMeshLayer: 0
  m_StaticEditorFlags: 0
  m_IsActive: 1
--- !u!114 &1752257467
MonoBehaviour:
  m_ObjectHideFlags: 0
  m_CorrespondingSourceObject: {fileID: 0}
  m_PrefabInternal: {fileID: 0}
  m_GameObject: {fileID: 1752257466}
  m_Enabled: 1
  m_EditorHideFlags: 0
  m_Script: {fileID: 1077351063, guid: f70555f144d8491a825f0804e09c671c, type: 3}
  m_Name: 
  m_EditorClassIdentifier: 
  m_HorizontalAxis: Horizontal
  m_VerticalAxis: Vertical
  m_SubmitButton: Submit
  m_CancelButton: Cancel
  m_InputActionsPerSecond: 10
  m_RepeatDelay: 0.5
  m_ForceModuleActive: 0
--- !u!114 &1752257468
MonoBehaviour:
  m_ObjectHideFlags: 0
  m_CorrespondingSourceObject: {fileID: 0}
  m_PrefabInternal: {fileID: 0}
  m_GameObject: {fileID: 1752257466}
  m_Enabled: 1
  m_EditorHideFlags: 0
  m_Script: {fileID: -619905303, guid: f70555f144d8491a825f0804e09c671c, type: 3}
  m_Name: 
  m_EditorClassIdentifier: 
  m_FirstSelected: {fileID: 0}
  m_sendNavigationEvents: 1
  m_DragThreshold: 10
--- !u!4 &1752257469
Transform:
  m_ObjectHideFlags: 0
  m_CorrespondingSourceObject: {fileID: 0}
  m_PrefabInternal: {fileID: 0}
  m_GameObject: {fileID: 1752257466}
  m_LocalRotation: {x: 0, y: 0, z: 0, w: 1}
  m_LocalPosition: {x: 0, y: 0, z: 0}
  m_LocalScale: {x: 1, y: 1, z: 1}
  m_Children: []
  m_Father: {fileID: 0}
  m_RootOrder: 3
  m_LocalEulerAnglesHint: {x: 0, y: 0, z: 0}
--- !u!224 &1842579552 stripped
RectTransform:
  m_CorrespondingSourceObject: {fileID: 224657068988582684, guid: 8a0cc3fa8bfb645a7b371a78839118d2,
    type: 2}
  m_PrefabInternal: {fileID: 208037471}
--- !u!1 &1967737095
GameObject:
  m_ObjectHideFlags: 0
  m_CorrespondingSourceObject: {fileID: 0}
  m_PrefabInternal: {fileID: 0}
  serializedVersion: 6
  m_Component:
  - component: {fileID: 1967737100}
  - component: {fileID: 1967737099}
  - component: {fileID: 1967737098}
  - component: {fileID: 1967737097}
  - component: {fileID: 1967737096}
  m_Layer: 0
  m_Name: Cube
  m_TagString: Untagged
  m_Icon: {fileID: 0}
  m_NavMeshLayer: 0
  m_StaticEditorFlags: 0
  m_IsActive: 0
--- !u!114 &1967737096
MonoBehaviour:
  m_ObjectHideFlags: 0
  m_CorrespondingSourceObject: {fileID: 0}
  m_PrefabInternal: {fileID: 0}
  m_GameObject: {fileID: 1967737095}
  m_Enabled: 1
  m_EditorHideFlags: 0
  m_Script: {fileID: 11500000, guid: c8efce6660a384c18b05eb9ec4c3dd42, type: 3}
  m_Name: 
  m_EditorClassIdentifier: 
  AnimationDuration: 1
  AllowLoop: 0
  ScaleX:
    serializedVersion: 2
    m_Curve: []
    m_PreInfinity: 2
    m_PostInfinity: 2
    m_RotationOrder: 4
  ScaleY:
    serializedVersion: 2
    m_Curve: []
    m_PreInfinity: 2
    m_PostInfinity: 2
    m_RotationOrder: 4
  ScaleZ:
    serializedVersion: 2
    m_Curve: []
    m_PreInfinity: 2
    m_PostInfinity: 2
    m_RotationOrder: 4
  RotationScaler: 1
  RotationX:
    serializedVersion: 2
    m_Curve: []
    m_PreInfinity: 2
    m_PostInfinity: 2
    m_RotationOrder: 4
  RotationY:
    serializedVersion: 2
    m_Curve: []
    m_PreInfinity: 2
    m_PostInfinity: 2
    m_RotationOrder: 4
  RotationZ:
    serializedVersion: 2
    m_Curve: []
    m_PreInfinity: 2
    m_PostInfinity: 2
    m_RotationOrder: 4
  TranslationScaler: 1
  TranslationX:
    serializedVersion: 2
    m_Curve: []
    m_PreInfinity: 2
    m_PostInfinity: 2
    m_RotationOrder: 4
  TranslationY:
    serializedVersion: 2
    m_Curve: []
    m_PreInfinity: 2
    m_PostInfinity: 2
    m_RotationOrder: 4
  TranslationZ:
    serializedVersion: 2
    m_Curve: []
    m_PreInfinity: 2
    m_PostInfinity: 2
    m_RotationOrder: 4
  Visibility:
    serializedVersion: 2
    m_Curve: []
    m_PreInfinity: 2
    m_PostInfinity: 2
    m_RotationOrder: 4
  currentTime: 0
  showDebug: 0
  isAllowedToPlay: 1
  AnimationObjectID: 0
  IsControoledByController: 0
--- !u!65 &1967737097
BoxCollider:
  m_ObjectHideFlags: 0
  m_CorrespondingSourceObject: {fileID: 0}
  m_PrefabInternal: {fileID: 0}
  m_GameObject: {fileID: 1967737095}
  m_Material: {fileID: 0}
  m_IsTrigger: 0
  m_Enabled: 1
  serializedVersion: 2
  m_Size: {x: 1, y: 1, z: 1}
  m_Center: {x: 0, y: 0, z: 0}
--- !u!23 &1967737098
MeshRenderer:
  m_ObjectHideFlags: 0
  m_CorrespondingSourceObject: {fileID: 0}
  m_PrefabInternal: {fileID: 0}
  m_GameObject: {fileID: 1967737095}
  m_Enabled: 1
  m_CastShadows: 1
  m_ReceiveShadows: 1
  m_DynamicOccludee: 1
  m_MotionVectors: 1
  m_LightProbeUsage: 1
  m_ReflectionProbeUsage: 1
  m_RenderingLayerMask: 4294967295
  m_Materials:
  - {fileID: 10303, guid: 0000000000000000f000000000000000, type: 0}
  m_StaticBatchInfo:
    firstSubMesh: 0
    subMeshCount: 0
  m_StaticBatchRoot: {fileID: 0}
  m_ProbeAnchor: {fileID: 0}
  m_LightProbeVolumeOverride: {fileID: 0}
  m_ScaleInLightmap: 1
  m_PreserveUVs: 0
  m_IgnoreNormalsForChartDetection: 0
  m_ImportantGI: 0
  m_StitchLightmapSeams: 0
  m_SelectedEditorRenderState: 3
  m_MinimumChartSize: 4
  m_AutoUVMaxDistance: 0.5
  m_AutoUVMaxAngle: 89
  m_LightmapParameters: {fileID: 0}
  m_SortingLayerID: 0
  m_SortingLayer: 0
  m_SortingOrder: 0
--- !u!33 &1967737099
MeshFilter:
  m_ObjectHideFlags: 0
  m_CorrespondingSourceObject: {fileID: 0}
  m_PrefabInternal: {fileID: 0}
  m_GameObject: {fileID: 1967737095}
  m_Mesh: {fileID: 10202, guid: 0000000000000000e000000000000000, type: 0}
--- !u!4 &1967737100
Transform:
  m_ObjectHideFlags: 0
  m_CorrespondingSourceObject: {fileID: 0}
  m_PrefabInternal: {fileID: 0}
  m_GameObject: {fileID: 1967737095}
  m_LocalRotation: {x: 0, y: 0, z: 0, w: 1}
  m_LocalPosition: {x: 300.43164, y: 291.84793, z: -1.6703538}
  m_LocalScale: {x: 1, y: 1, z: 1}
  m_Children: []
  m_Father: {fileID: 0}
  m_RootOrder: 2
  m_LocalEulerAnglesHint: {x: 0, y: 0, z: 0}
